…
Pf$data$Metadata_Plate_Map_Name %>% unique %>% length %>% print

## [1] 97

profiles.mat %>% group_by(Metadata_ASSAY_WELL_ROLE) %>% summarise(cnt = n()) %>% print

## # A tibble: 2 × 2
##   Metadata_ASSAY_WELL_ROLE    cnt
##                      <chr>  <int>
## 1                     mock  26572
## 2                  treated 126798

profiles.mat %>% group_by(Metadata_Plate) %>% summarise(cnt = n()) %>% print

## # A tibble: 406 × 2
##    Metadata_Plate   cnt
##             <int> <int>
## 1           24277   384
## 2           24278   384
## 3           24279   384
## 4           24280   383
## 5           24293   384
## 6           24294   384
## 7           24295   384
## 8           24296   384
## 9           24297   384
## 10          24300   384
## # ... with 396 more rows
…
